{
    "featuredInsight": {
        "imageUrl": "../../assets/images/library.png",
        "category": "Rapport",
        "title": "Rapport 2024 sur l'état de la préservation du patrimoine",
        "description": "Une analyse complète des efforts de préservation culturelle sur trois continents, axée sur l'intégration communautaire durable et l'archivage numérique.",
        "fileSize": "14.2 Mo",
        "fileType": "PDF"
    },
    "resourceLibrary": {
        "currentPage": 2,
        "nextPage": 3,
        "prevPage": 1,
        "totalPages": 10,
        "itemsPerPage": 4,
        "showingItems": 4,
        "totalItems": 124,
        "resources": [
            {
                "id": 1,
                "imageUrl": "https://images.unsplash.com/photo-1586953208448-b95a79798f07?w=300&h=400&fit=crop",
                "title": "Normes d'archivage numérique v2.0",
                "description": "Cadre global de gestion des actifs numériques pour la préservation du patrimoine.",
                "fileSize": "14.2 Mo",
                "fileType": "PDF",
                "category": "Rapport",
                "downloadUrl": "/resources/digital-archiving-standards.pdf"
            },
            {
                "id": 2,
                "imageUrl": "https://images.unsplash.com/photo-1454165804606-c3d57bc86b40?w=300&h=400&fit=crop",
                "title": "Modèle de proposition de subvention",
                "description": "Modèle prêt à l'emploi pour les demandes de financement de projets culturels.",
                "fileSize": "8.5 Mo",
                "fileType": "DOCX",
                "category": "Document",
                "downloadUrl": "/resources/grant-proposal-template.docx"
            },
            {
                "id": 3,
                "imageUrl": "https://images.unsplash.com/photo-1554224155-6726b3ff858f?w=300&h=400&fit=crop",
                "title": "Analyse d'impact communautaire",
                "description": "Méthodologie et outils pour mesurer l'impact social des initiatives rurales.",
                "fileSize": "12.3 Mo",
                "fileType": "PDF",
                "category": "Contrat",
                "downloadUrl": "/resources/community-impact-analysis.pdf"
            },
            {
                "id": 4,
                "imageUrl": "https://images.unsplash.com/photo-1434030216411-0b793f4b4173?w=300&h=400&fit=crop",
                "title": "Masterclass d'enregistrement de l'histoire des céréales",
                "description": "Guide pour documenter les connaissances et pratiques agricoles traditionnelles.",
                "fileSize": "22.7 Mo",
                "fileType": "MP4",
                "category": "Finance",
                "downloadUrl": "/resources/grain-history-masterclass.mp4"
            },
            {
                "id": 5,
                "imageUrl": "https://images.unsplash.com/photo-1434030216411-0b793f4b4173?w=300&h=400&fit=crop",
                "title": "Modèle de convention de partenariat",
                "description": "Modèle juridique pour la collaboration avec les ONG et les autorités locales.",
                "fileSize": "5.8 Mo",
                "fileType": "DOCX",
                "category": "Rapport",
                "downloadUrl": "/resources/partnership-agreement.docx"
            },
            {
                "id": 6,
                "imageUrl": "https://images.unsplash.com/photo-1507925921958-8a62f3d1a50d?w=300&h=400&fit=crop",
                "title": "Directives d'entretien des sites",
                "description": "Meilleures pratiques pour l'entretien des infrastructures hydrauliques et agricoles.",
                "fileSize": "9.1 Mo",
                "fileType": "PDF",
                "category": "Document",
                "downloadUrl": "/resources/site-maintenance-guidelines.pdf"
            },
            {
                "id": 7,
                "imageUrl": "https://images.unsplash.com/photo-1434030216411-0b793f4b4173?w=300&h=400&fit=crop",
                "title": "Masterclass d'enregistrement de l'histoire des céréales",
                "description": "Guide pour documenter les connaissances et pratiques agricoles traditionnelles.",
                "fileSize": "22.7 Mo",
                "fileType": "MP4",
                "category": "Finance",
                "downloadUrl": "/resources/grain-history-masterclass.mp4"
            },
            {
                "id": 8,
                "imageUrl": "https://images.unsplash.com/photo-1434030216411-0b793f4b4173?w=300&h=400&fit=crop",
                "title": "Modèle de convention de partenariat",
                "description": "Modèle juridique pour la collaboration avec les ONG et les autorités locales.",
                "fileSize": "5.8 Mo",
                "fileType": "DOCX",
                "category": "Rapport",
                "downloadUrl": "/resources/partnership-agreement.docx"
            },
            {
                "id": 9,
                "imageUrl": "https://images.unsplash.com/photo-1507925921958-8a62f3d1a50d?w=300&h=400&fit=crop",
                "title": "Directives d'entretien des sites",
                "description": "Meilleures pratiques pour l'entretien des infrastructures hydrauliques et agricoles.",
                "fileSize": "9.1 Mo",
                "fileType": "PDF",
                "category": "Document",
                "downloadUrl": "/resources/site-maintenance-guidelines.pdf"
            }
        ]
    }
}